Homework 3 Solution
…
Problem 1

The instacart dataset contains 1384617 rows and 15 columns.

Observations are the level of items in orders by user. There are user/order variables  user ID, order day, and order hour, There are also item variables  name, aisle, department, and some numeric codes. Here is an example of observations, user 112108 made his/her fourth order at 10 am to buy 9 products: Bulgarian yogurt, organic 4% milk fat whole milk cottage cheese and so on.

How many aisles, and which are most items from?

instacart %>% 
  count(aisle) %>% 
  arrange(desc(n))

## # A tibble: 134 x 2
##    aisle                              n
##    <chr>                          <int>
##  1 fresh vegetables              150609
##  2 fresh fruits                  150473
##  3 packaged vegetables fruits     78493
##  4 yogurt                         55240
##  5 packaged cheese                41699
##  6 water seltzer sparkling water  36617
##  7 milk                           32644
##  8 chips pretzels                 31269
##  9 soy lactosefree                26240
## 10 bread                          23635
## #  with 124 more rows
…
ny_noaa_df %>% 
  group_by(snow) %>% 
  drop_na(snow) %>% 
  count(snow) %>% 
  arrange(desc(n))

## # A tibble: 281 x 2
## # Groups:   snow [281]
##     snow       n
##    <int>   <int>
##  1     0 2008508
##  2    25   31022
##  3    13   23095
##  4    51   18274
##  5    76   10173
##  6     8    9962
##  7     5    9748
##  8    38    9197
##  9     3    8790
## 10   102    6552
## #  with 271 more rows
…
